Intro to tidyverts
…
.code80[

```r
my_tourism %>% 
  mutate(Quarter = yearquarter(Quarter)) %>% 
* as_tsibble(key = c(Region,State,Purpose),
             index = Quarter) -> tourism_tsbl

tourism_tsbl
```

```
## # A tsibble: 24,320 x 5 [1Q]
## # Key:       Region, State, Purpose [304]
##    Quarter Region   State           Purpose  Trips
##      <qtr> <chr>    <chr>           <chr>    <dbl>
##  1 1998 Q1 Adelaide South Australia Business  135.
##  2 1998 Q2 Adelaide South Australia Business  110.
##  3 1998 Q3 Adelaide South Australia Business  166.
##  4 1998 Q4 Adelaide South Australia Business  127.
##  5 1999 Q1 Adelaide South Australia Business  137.
##  6 1999 Q2 Adelaide South Australia Business  200.
##  7 1999 Q3 Adelaide South Australia Business  169.
##  8 1999 Q4 Adelaide South Australia Business  134.
##  9 2000 Q1 Adelaide South Australia Business  154.
## 10 2000 Q2 Adelaide South Australia Business  169.
## # … with 24,310 more rows
```
…
```r
tourism_tsbl %>% 
  #filter(Region == "Australia's South West", Purpose == "Holiday") %>% 
* filter(year(Quarter) < 2015) %>%  # get training data
  model(
    snaive = SNAIVE(Trips),
    arima = ARIMA(Trips),
    ets = ETS(Trips)
  ) -> fit_benchmark_All

fit_benchmark_All
```

```
## # A mable: 304 x 6
## # Key:     Region, State, Purpose [304]
##    Region       State          Purpose snaive  arima                   ets      
##    <chr>        <chr>          <chr>   <model> <model>                 <model>  
##  1 Adelaide     South Austral… Busine… <SNAIV… <ARIMA(0,0,0)(1,0,1)[4… <ETS(M,N…
##  2 Adelaide     South Austral… Holiday <SNAIV… <ARIMA(0,0,0)(2,0,0)[4… <ETS(M,N…
##  3 Adelaide     South Austral… Other   <SNAIV… <ARIMA(0,1,1) w/ drift> <ETS(M,A…
##  4 Adelaide     South Austral… Visiti… <SNAIV… <ARIMA(0,0,0)(1,0,1)[4… <ETS(A,N…
##  5 Adelaide Hi… South Austral… Busine… <SNAIV… <ARIMA(1,0,0) w/ mean>  <ETS(A,N…
##  6 Adelaide Hi… South Austral… Holiday <SNAIV… <ARIMA(0,0,0) w/ mean>  <ETS(A,N…
##  7 Adelaide Hi… South Austral… Other   <SNAIV… <ARIMA(0,0,1)(1,0,0)[4… <ETS(A,N…
##  8 Adelaide Hi… South Austral… Visiti… <SNAIV… <ARIMA(0,0,0) w/ mean>  <ETS(M,A…
##  9 Alice Sprin… Northern Terr… Busine… <SNAIV… <ARIMA(0,0,0) w/ mean>  <ETS(A,N…
## 10 Alice Sprin… Northern Terr… Holiday <SNAIV… <ARIMA(0,0,0)(0,1,2)[4… <ETS(M,N…
## # … with 294 more rows
```
…
